dcMIDletSuiteLoader.startSuite(), bci=5
 - com.sun.midp.main.AbstractMIDletSuiteLoader.runMIDletSuite(), bci=134
 - com.sun.midp.main.AppIsolateMIDletSuiteLoader.main(), bci=26
startin!
got port high!

set port high

goin!
Exited loop
jsonin!
jsonin!
java.io.IOException: Profile could not be activated
 - com.sun.midp.io.j2me.socket.Protocol.open(), bci=149
 - com.sun.midp.io.j2me.socket.Protocol.openPrim(), bci=4
 - com.sun.midp.io.j2me.http.Protocol.createConnection(), bci=31
 - com.sun.midp.io.j2me.http.Protocol.connect(), bci=41
 - com.sun.midp.io.j2me.http.Protocol.streamConnect(), bci=108
 - com.sun.midp.io.j2me.http.Protocol.startRequest(), bci=7
 - com.sun.midp.io.j2me.http.Protocol.sendRequest(), bci=33
 - com.sun.midp.io.j2me.http.Protocol.flush(), bci=27
 - com.sun.midp.io.BaseOutputStream.flush(), bci=5
 - Dino5Ehs6Firmware.startApp(Dino5Ehs6Firmware.java:95)
 - javax.microedition.midlet.MIDletTunnelImpl.callStartApp(), bci=1
 - com.sun.midp.midlet.MIDletPeer.startApp(), bci=5
 - com.sun.midp.midlet.MIDletStateHandler.startSuite(), bci=261
 - com.sun.midp.main.AbstractMIDletSuiteLoader.startSuite(), bci=38
 - com.sun.midp.main.CldcMIDletSuiteLoader.startSuite(), bci=5
 - com.sun.midp.main.AbstractMIDletSuiteLoader.runMIDletSuite(), bci=134
 - com.sun.midp.main.AppIsolateMIDletSuiteLoader.main(), bci=26
startin!
got port high!

set port high

goin!
Exited loop
jsonin!
jsonin!
java.io.IOException: Profile could not be activated
 - com.sun.midp.io.j2me.socket.Protocol.open(), bci=149
 - com.sun.midp.io.j2me.socket.Protocol.openPrim(), bci=4
 - com.sun.midp.io.j2me.http.Protocol.createConnection(), bci=31
 - com.sun.midp.io.j2me.http.Protocol.connect(), bci=41
 - com.sun.midp.io.j2me.http.Protocol.streamConnect(), bci=108
 - com.sun.midp.io.j2me.http.Protocol.startRequest(), bci=7
 - com.sun.midp.io.j2me.http.Protocol.sendRequest(), bci=33
 - com.sun.midp.io.j2me.http.Protocol.flush(), bci=27
 - com.sun.midp.io.BaseOutputStream.flush(), bci=5
 - Dino5Ehs6Firmware.startApp(Dino5Ehs6Firmware.java:95)
 - javax.microedition.midlet.MIDletTunnelImpl.callStartApp(), bci=1
 - com.sun.midp.midlet.MIDletPeer.startApp(), bci=5
 - com.sun.midp.midlet.MIDletStateHandler.startSuite(), bci=261
 - com.sun.midp.main.AbstractMIDletSuiteLoader.startSuite(), bci=38
 - com.sun.midp.main.CldcMIDletSuiteLoader.startSuite(), bci=5
 - com.sun.midp.main.AbstractMIDletSuiteLoader.runMIDletSuite(), bci=134
 - com.sun.midp.main.AppIsolateMIDletSuiteLoader.main(), bci=26
startin!
got port high!

set port high

goin!
Exited loop
jsonin!
jsonin!
java.io.IOException: Profile could not be activated
 - com.sun.midp.io.j2me.socket.Protocol.open(), bci=149
 - com.sun.midp.io.j2me.socket.Protocol.openPrim(), bci=4
 - com.sun.midp.io.j2me.http.Protocol.createConnection(), bci=31
 - com.sun.midp.io.j2me.http.Protocol.connect(), bci=41
 - com.sun.midp.io.j2me.http.Protocol.streamConnect(), bci=108
 - com.sun.midp.io.j2me.http.Protocol.startRequest(), bci=7
 - com.sun.midp.io.j2me.http.Protocol.sendRequest(), bci=33
 - com.sun.midp.io.j2me.http.Protocol.flush(), bci=27
 - com.sun.midp.io.BaseOutputStream.flush(), bci=5
 - Dino5Ehs6Firmware.startApp(Dino5Ehs6Firmware.java:95)
 - javax.microedition.midlet.MIDletTunnelImpl.callStartApp(), bci=1
 - com.sun.midp.midlet.MIDletPeer.startApp(), bci=5
 - com.sun.midp.midlet.MIDletStateHandler.startSuite(), bci=261
 - com.sun.midp.main.AbstractMIDletSuiteLoader.startSuite(), bci=38
 - com.sun.midp.main.CldcMIDletSuiteLoader.startSuite(), bci=5
 - com.sun.midp.main.AbstractMIDletSuiteLoader.runMIDletSuite(), bci=134
 - com.sun.midp.main.AppIsolateMIDletSuiteLoader.main(), bci=26
startin!
got port high!

set port high

goin!
Exited loop
jsonin!
jsonin!
java.io.IOException: Profile could not be activated
 - com.sun.midp.io.j2me.socket.Protocol.open(), bci=149
 - com.sun.midp.io.j2me.socket.Protocol.openPrim(), bci=4
 - com.sun.midp.io.j2me.http.Protocol.createConnection(), bci=31
 - com.sun.midp.io.j2me.http.Protocol.connect(), bci=41
 - com.sun.midp.io.j2me.http.Protocol.streamConnect(), bci=108
 - com.sun.midp.io.j2me.http.Protocol.startRequest(), bci=7
 - com.sun.midp.io.j2me.http.Protocol.sendRequest(), bci=33
 - com.sun.midp.io.j2me.http.Protocol.flush(), bci=27
 - com.sun.midp.io.BaseOutputStream.flush(), bci=5
 - Dino5Ehs6Firmware.startApp(Dino5Ehs6Firmware.java:95)
 - javax.microedition.midlet.MIDletTunnelImpl.callStartApp(), bci=1
 - com.sun.midp.midlet.MIDletPeer.startApp(), bci=5
 - com.sun.midp.midlet.MIDletStateHandler.startSuite(), bci=261
 - com.sun.midp.main.AbstractMIDletSuiteLoader.startSuite(), bci=38
 - com.sun.midp.main.CldcMIDletSuiteLoader.startSuite(), bci=5
 - com.sun.midp.main.AbstractMIDletSuiteLoader.runMIDletSuite(), bci=134
 - com.sun.midp.main.AppIsolateMIDletSuiteLoader.main(), bci=26
MIDlet:Dino5Ehs6Firmware terminated
Constructor
startApp

Hello World

startin!

SYSTEM.OUT STARTED
